{"page":1,"total_results":423,"total_pages":22,"results":[{"popularity":4.104,"id":479017,"video":false,"vote_count":0,"vote_average":0,"title":"Untitled Disney Animation Project","release_date":"2021-11-21","original_language":"en","original_title":"Untitled Disney Animation Project","genre_ids":[16,35,10751],"backdrop_path":null,"adult":false,"overview":"","poster_path":null},{"popularity":3.249,"vote_count":17,"video":false,"poster_path":"\/lTAAH8WQE3BJlb2KJRcxCEYQgFp.jpg","id":360086,"adult":false,"backdrop_path":"\/2vSIq38hWrbqjuR6NzD6jR2YVgj.jpg","original_language":"en","original_title":"Walt Disney","genre_ids":[99],"title":"Walt Disney","vote_average":8.5,"overview":"Walt Disney was uniquely adept at art as well as commerce, a master filmmaker who harnessed the power of technology and storytelling. This new film examines Disney's complex life and enduring legacy. Features rare archival footage from the Disney vaults, scenes from some of his greatest films, interviews with biographers and animators, and the designers who helped turn his dream of Disneyland into reality.","release_date":"2015-09-15"},{"popularity":3.511,"id":508957,"video":false,"vote_count":0,"vote_average":0,"title":"Untitled Disney Live Action Project","release_date":"2023-02-17","original_language":"en","original_title":"Untitled Disney Live Action Project","genre_ids":[10751],"backdrop_path":null,"adult":false,"overview":"Plot unknown.","poster_path":null},{"popularity":3.507,"genre_ids":[],"video":false,"vote_count":0,"original_language":"en","adult":false,"title":"One Day at Disney","original_title":"One Day at Disney","backdrop_path":null,"id":625415,"vote_average":0,"overview":"Discover what it’s like to report to work every day for The Walt Disney Company. Step behind the scenes to immerse yourself in one “ordinary” day at Disney.","poster_path":null},{"popularity":1.4,"id":339074,"video":false,"vote_count":3,"vote_average":10,"title":"Disney Dreams","release_date":"2012-06-01","original_language":"en","original_title":"Disney Dreams","genre_ids":[10402,10751],"backdrop_path":"\/a0WjmuiP0f975hj7yUXPEOzuxqy.jpg","adult":false,"overview":"","poster_path":"\/hIxzm1V0xh3FSYIqkEbLY3QUKXr.jpg"},{"popularity":3.871,"id":508927,"video":false,"vote_count":0,"vote_average":0,"title":"Untitled Disney Live Action Project (2)","release_date":"2021-03-12","original_language":"en","original_title":"Untitled Disney Live Action Project (2)","genre_ids":[10751],"backdrop_path":null,"adult":false,"overview":"Plot unknown.","poster_path":null},{"popularity":3.512,"id":508953,"video":false,"vote_count":0,"vote_average":0,"title":"Untitled Disney Live Action Project (4)","release_date":"2022-11-04","original_language":"en","original_title":"Untitled Disney Live Action Project (4)","genre_ids":[10751],"backdrop_path":null,"adult":false,"overview":"Plot unknown.","poster_path":null},{"popularity":1.764,"vote_count":1,"video":true,"poster_path":"\/AaX0pw76DYl66m8U2OIwmXJqqZz.jpg","id":298295,"adult":false,"backdrop_path":"\/hmE3HtIl9KF6lk6SUBVs116TCaF.jpg","original_language":"en","original_title":"Walt Disney Treasures: Disney Rarities","genre_ids":[16],"title":"Walt Disney Treasures: Disney Rarities","vote_average":9,"overview":"This set covers many miscellaneous cartoons to come out of the studio that do not feature the usual stable of Disney stars and do not even fit in Silly Symphonies or did not feature the Silly Symphonies title card. This set also includes a few select episodes from the Alice Comedies, which were made in the 1920s, long before Mickey Mouse ever came on the scene.","release_date":"2005-12-06"},{"popularity":3.513,"id":508954,"video":false,"vote_count":0,"vote_average":0,"title":"Untitled Disney Live Action Project (5)","release_date":"2022-11-16","original_language":"en","original_title":"Untitled Disney Live Action Project (5)","genre_ids":[10751],"backdrop_path":null,"adult":false,"overview":"Plot unknown.","poster_path":null},{"popularity":3.513,"id":508951,"video":false,"vote_count":0,"vote_average":0,"title":"Untitled Disney Live Action Project (3)","release_date":"2022-10-07","original_language":"en","original_title":"Untitled Disney Live Action Project (3)","genre_ids":[10751],"backdrop_path":null,"adult":false,"overview":"Plot unknown.","poster_path":null},{"popularity":3.552,"id":508948,"video":false,"vote_count":0,"vote_average":0,"title":"Untitled Disney Live Action Project (2)","release_date":"2022-07-08","original_language":"en","original_title":"Untitled Disney Live Action Project (2)","genre_ids":[10751],"backdrop_path":null,"adult":false,"overview":"Plot unknown.","poster_path":null},{"popularity":1.135,"id":311015,"video":true,"vote_count":1,"vote_average":8,"title":"Disney Parks: Disney's Animal Kingdom","release_date":"2010-01-01","original_language":"en","original_title":"Disney Parks: Disney's Animal Kingdom","genre_ids":[99],"backdrop_path":null,"adult":false,"overview":"This documentary offers a look at the Walt Disney Co.'s revolutionary Animal Kingdom theme park in Orlando, Fla., which presented unique challenges to the project's designers in combining theme park rides and live animals in the same environment. The program features a fascinating backstage glimpse of the park, including its Dinosaur attraction, as well as the Tree of Life and spectacular Expedition Everest and Kilimanjaro Safari.","poster_path":"\/93OEKY5vnKqGFbOyHtUAdcEz8NV.jpg"},{"popularity":5.35,"id":15485,"video":false,"vote_count":27,"vote_average":5.1,"title":"Disney Princess Enchanted Tales: Follow Your Dreams","release_date":"2007-09-03","original_language":"en","original_title":"Disney Princess Enchanted Tales: Follow Your Dreams","genre_ids":[16,10751],"backdrop_path":"\/7T6y6u1vUbZrCwQ9kFqH21CoAaB.jpg","adult":false,"overview":"Your little princess will want to follow her dreams as she tags along on an adventure with two of Disney's most popular princesses in this new animated fairy tale. Aurora, star of the beloved classic Sleeping Beauty, and Jasmine, from the Academy Award-winning film Aladdin, journey to faraway lands and make new discoveries about themselves.","poster_path":"\/beAvTAhMQpTRxmlgGgpfg9F2rc1.jpg"},{"popularity":1.822,"vote_count":4,"video":true,"poster_path":"\/yOX8VfDFHJI1Ap1xtylJrwBciHJ.jpg","id":286370,"adult":false,"backdrop_path":"\/sdHuNWMNH7PW3KCAKDVcVfBMFFz.jpg","original_language":"en","original_title":"Disney Heroes Volume 1","genre_ids":[16,10751],"title":"Disney Heroes Volume 1","vote_average":7.5,"overview":"","release_date":"2005-06-15"},{"popularity":1.735,"vote_count":6,"video":false,"poster_path":"\/23LbkmaZkijqpVugHDkAMJIQKJY.jpg","id":177868,"adult":false,"backdrop_path":"\/1vLjmvQrwR5FwDC2sLAhRnu1vGL.jpg","original_language":"en","original_title":"A Disney Christmas Gift","genre_ids":[],"title":"A Disney Christmas Gift","vote_average":7.1,"overview":"Christmas-themed compilation of animated shorts featuring Mickey Mouse and Donald Duck combined with excerpts from Disney feature films as well as the 1933 classic short \"The Night Before Christmas\".","release_date":"1983-12-20"},{"popularity":2.439,"id":508936,"video":false,"vote_count":0,"vote_average":0,"title":"Untitled Disney Live Action Project (5)","release_date":"2021-10-08","original_language":"en","original_title":"Untitled Disney Live Action Project (5)","genre_ids":[10751],"backdrop_path":null,"adult":false,"overview":"Plot unknown.","poster_path":null},{"popularity":6.992,"id":348666,"video":true,"vote_count":54,"vote_average":7.9,"title":"Walt Disney Animation Studios Short Films Collection","release_date":"2015-08-18","original_language":"en","original_title":"Walt Disney Animation Studios Short Films Collection","genre_ids":[16,10751,35,18],"backdrop_path":"\/pvDystW8aEq1DUVlABTpmQCG6T5.jpg","adult":false,"overview":"INCLUDES THE FOLLOWING SHORTS: \"John Henry,\" \"Lorenzo,\" \"The Little Matchgirl,\" \"How To Hook Up Your Home Theater,\" \"Tick Tock Tale,\" \"Prep & Landing: Operation Secret Santa,\" \"The Ballad Of Nessie,\" \"Tangled Ever After,\" \"Paperman,\" \"Get A Horse!\", \"Feast,\" \"Frozen Fever\"","poster_path":"\/obo5K9vJgOUysG4oS17EOp2Rb3o.jpg"},{"popularity":1.989,"id":276984,"video":false,"vote_count":0,"vote_average":0,"title":"A Walt Disney Christmas","release_date":"1982-11-23","original_language":"en","original_title":"A Walt Disney Christmas","genre_ids":[],"backdrop_path":"\/6yCJPxwPILiBCPFwPXVDcBPyVAF.jpg","adult":false,"overview":"The six short animated films from the Walt Disney Studios share themes of wintertime and Christmas. In \"Once Upon a Wintertime\" (1954), a young couple go ice skating, where they are joined by a pair of rabbits. \"Santa's Workshop\" (1932) shows Santa's little helpers working hard to finish making toys before Christmas. From the Silly Symphonies series, \"The Night Before Christmas\" is an animated retelling of the iconic poem, \"A Visit from St. Nicholas\". \"Pluto's Christmas Tree\" features the mischievous Chip and Dale taunting Pluto from within the branches of a Christmas tree. In \"On Ice\", Mickey, Minnie, Goofy, Donald and Pluto all enjoy winter sports. \"Donald's Snow Fight\" pits Donald Duck against nephews Huey, Dewey and Louie in a snowball war.","poster_path":"\/vMNlghDQdkye5YFqP7oENzx2rL2.jpg"},{"popularity":2.885,"id":508946,"video":false,"vote_count":0,"vote_average":0,"title":"Untitled Disney Live Action Project (1)","release_date":"2022-05-27","original_language":"en","original_title":"Untitled Disney Live Action Project (1)","genre_ids":[10751],"backdrop_path":null,"adult":false,"overview":"Plot unknown.","poster_path":null},{"popularity":1.88,"vote_count":0,"video":true,"poster_path":"\/gDkdluGqjohgNWVuVZXY2GoWApW.jpg","id":534216,"adult":false,"backdrop_path":null,"original_language":"en","original_title":"Walt Disney Treasures: Silly Symphonies","genre_ids":[16,35,14],"title":"Walt Disney Treasures: Silly Symphonies","vote_average":0,"overview":"","release_date":"2001-12-04"}]}