{"page":1,"total_results":547,"total_pages":28,"results":[{"known_for_department":"Production","id":2106,"name":"Walt Disney","known_for":[{"release_date":"1937-12-20","id":408,"vote_count":4518,"video":false,"media_type":"movie","vote_average":7,"title":"Snow White and the Seven Dwarfs","genre_ids":[16,14,10751],"original_title":"Snow White and the Seven Dwarfs","original_language":"en","adult":false,"backdrop_path":"\/c66otZnSdri67kR7ps92kRX849o.jpg","overview":"A beautiful girl, Snow White, takes refuge in the forest in the house of seven dwarfs to hide from her stepmother, the wicked Queen. The Queen is jealous because she wants to be known as \"the fairest in the land,\" and Snow White's beauty surpasses her own.","poster_path":"\/mnZi4RJXDTkXzcnXyzGu1fFfRJJ.jpg"},{"poster_path":"\/avz6S9HYWs4O8Oe4PenBFNX4uDi.jpg","id":11224,"vote_count":3975,"video":false,"media_type":"movie","adult":false,"backdrop_path":"\/xSN1cpugrzi8DjpVxtHeRRlbB6Q.jpg","genre_ids":[10751,14,16,10749],"original_title":"Cinderella","original_language":"en","title":"Cinderella","vote_average":7,"overview":"Cinderella has faith her dreams of a better life will come true. With help from her loyal mice friends and a wave of her Fairy Godmother's wand, Cinderella's rags are magically turned into a glorious gown and off she goes to the Royal Ball. But when the clock strikes midnight, the spell is broken, leaving a single glass slipper... the only key to the ultimate fairy-tale ending!","release_date":"1950-03-04"},{"release_date":"1967-10-17","id":9325,"vote_count":3852,"video":false,"media_type":"movie","vote_average":7.2,"title":"The Jungle Book","genre_ids":[12,16,10751],"original_title":"The Jungle Book","original_language":"en","adult":false,"backdrop_path":"\/pfSLaXhojt0cNU6lWRGxvbQ2HWi.jpg","overview":"The boy Mowgli makes his way to the man-village with Bagheera, the wise panther. Along the way he meets jazzy King Louie, the hypnotic snake Kaa and the lovable, happy-go-lucky bear Baloo, who teaches Mowgli \"The Bare Necessities\" of life and the true meaning of friendship.","poster_path":"\/7ZzFf3eO4Xgi5Vc0UO6eTZYrbs9.jpg"}],"popularity":8.448,"profile_path":"\/mrcVG49U2PVm1LpPMmwBtn5ZzOh.jpg","gender":2,"media_type":"person","adult":false},{"vote_count":0,"popularity":4.104,"id":479017,"video":false,"media_type":"movie","vote_average":0,"title":"Untitled Disney Animation Project","release_date":"2021-11-21","original_language":"en","original_title":"Untitled Disney Animation Project","genre_ids":[16,35,10751],"backdrop_path":null,"adult":false,"overview":"","poster_path":null},{"poster_path":"\/lTAAH8WQE3BJlb2KJRcxCEYQgFp.jpg","popularity":3.249,"vote_count":17,"video":false,"media_type":"movie","id":360086,"adult":false,"backdrop_path":"\/2vSIq38hWrbqjuR6NzD6jR2YVgj.jpg","original_language":"en","original_title":"Walt Disney","genre_ids":[99],"title":"Walt Disney","vote_average":8.5,"overview":"Walt Disney was uniquely adept at art as well as commerce, a master filmmaker who harnessed the power of technology and storytelling. This new film examines Disney's complex life and enduring legacy. Features rare archival footage from the Disney vaults, scenes from some of his greatest films, interviews with biographers and animators, and the designers who helped turn his dream of Disneyland into reality.","release_date":"2015-09-15"},{"vote_count":0,"popularity":3.511,"id":508957,"video":false,"media_type":"movie","vote_average":0,"title":"Untitled Disney Live Action Project","release_date":"2023-02-17","original_language":"en","original_title":"Untitled Disney Live Action Project","genre_ids":[10751],"backdrop_path":null,"adult":false,"overview":"Plot unknown.","poster_path":null},{"known_for_department":"Acting","id":92525,"name":"Melissa Disney","known_for":[{"release_date":"2018-08-24","id":489999,"vote_count":1800,"video":false,"media_type":"movie","vote_average":7.6,"title":"Searching","genre_ids":[18,9648,53],"original_title":"Searching","original_language":"en","adult":false,"backdrop_path":"\/a3ay4lYVIbgXY9QdWveWqtS1lVx.jpg","overview":"After David Kim's 16-year-old daughter goes missing, a local investigation is opened and a detective is assigned to the case. But 37 hours later and without a single lead, David decides to search the one place no one has looked yet, where all secrets are kept today: his daughter's laptop.","poster_path":"\/9N0T3BaHZNdUCcMZQIM3yMUFwEh.jpg"},{"poster_path":"\/dNtDUD9OzMSDj5Z7ZyDoouLnioU.jpg","id":157360,"vote_count":333,"video":false,"media_type":"movie","adult":false,"backdrop_path":"\/wogIYE7DQ7pbyDZmdv8wvpLKnFh.jpg","genre_ids":[35],"original_title":"In a World...","original_language":"en","title":"In a World...","vote_average":6.4,"overview":"An underachieving vocal coach is motivated by her father, the king of movie-trailer voice-overs, to pursue her aspirations of becoming a voice-over star. Amidst pride, sexism and family dysfunction, she sets out to change the voice of a generation.","release_date":"2013-08-09"},{"release_date":"2013-05-06","id":166076,"vote_count":183,"video":false,"media_type":"movie","vote_average":6.4,"title":"Superman: Unbound","genre_ids":[28,12,16],"original_title":"Superman: Unbound","original_language":"en","adult":false,"backdrop_path":"\/mIbwk59WP9kcRA9pprpHD2cjFxi.jpg","overview":"Based on the Geoff Johns\/Gary Frank 2008 release \"Superman: Brainiac,\" Superman: Unbound finds the horrific force responsible for the destruction of Krypton (Brainiac) descending upon Earth. Brainiac has crossed the universe, collecting cities from interesting planets, Kandor included, and now the all-knowing, ever-evolving android has his sights fixed on Metropolis. Superman must summon all of his physical and intellectual resources to protect his city, the love of his life, and his newly-arrived cousin, Supergirl.","poster_path":"\/sbGj8yQeUlIDZdffsuFv4Cy9snk.jpg"}],"popularity":1.435,"profile_path":"\/2HkJc4ErLOcM2sZzmY49nMQjnXs.jpg","gender":1,"media_type":"person","adult":false},{"popularity":3.507,"genre_ids":[],"video":false,"media_type":"movie","vote_count":0,"original_language":"en","adult":false,"title":"One Day at Disney","original_title":"One Day at Disney","backdrop_path":null,"id":625415,"vote_average":0,"overview":"Discover what it’s like to report to work every day for The Walt Disney Company. Step behind the scenes to immerse yourself in one “ordinary” day at Disney.","poster_path":null},{"vote_count":0,"popularity":3.871,"id":508927,"video":false,"media_type":"movie","vote_average":0,"title":"Untitled Disney Live Action Project (2)","release_date":"2021-03-12","original_language":"en","original_title":"Untitled Disney Live Action Project (2)","genre_ids":[10751],"backdrop_path":null,"adult":false,"overview":"Plot unknown.","poster_path":null},{"vote_count":0,"popularity":3.512,"id":508953,"video":false,"media_type":"movie","vote_average":0,"title":"Untitled Disney Live Action Project (4)","release_date":"2022-11-04","original_language":"en","original_title":"Untitled Disney Live Action Project (4)","genre_ids":[10751],"backdrop_path":null,"adult":false,"overview":"Plot unknown.","poster_path":null},{"vote_count":3,"popularity":1.4,"id":339074,"video":false,"media_type":"movie","vote_average":10,"title":"Disney Dreams","release_date":"2012-06-01","original_language":"en","original_title":"Disney Dreams","genre_ids":[10402,10751],"backdrop_path":"\/a0WjmuiP0f975hj7yUXPEOzuxqy.jpg","adult":false,"overview":"","poster_path":"\/hIxzm1V0xh3FSYIqkEbLY3QUKXr.jpg"},{"vote_count":0,"popularity":3.513,"id":508954,"video":false,"media_type":"movie","vote_average":0,"title":"Untitled Disney Live Action Project (5)","release_date":"2022-11-16","original_language":"en","original_title":"Untitled Disney Live Action Project (5)","genre_ids":[10751],"backdrop_path":null,"adult":false,"overview":"Plot unknown.","poster_path":null},{"vote_count":0,"popularity":3.513,"id":508951,"video":false,"media_type":"movie","vote_average":0,"title":"Untitled Disney Live Action Project (3)","release_date":"2022-10-07","original_language":"en","original_title":"Untitled Disney Live Action Project (3)","genre_ids":[10751],"backdrop_path":null,"adult":false,"overview":"Plot unknown.","poster_path":null},{"vote_count":0,"popularity":3.552,"id":508948,"video":false,"media_type":"movie","vote_average":0,"title":"Untitled Disney Live Action Project (2)","release_date":"2022-07-08","original_language":"en","original_title":"Untitled Disney Live Action Project (2)","genre_ids":[10751],"backdrop_path":null,"adult":false,"overview":"Plot unknown.","poster_path":null},{"known_for_department":"Directing","id":1085513,"name":"Andrew Disney","known_for":[{"poster_path":"\/2aOHMBYHvURCfQ0cnDNGW1ZYKUM.jpg","id":263913,"vote_count":21,"video":false,"media_type":"movie","adult":false,"backdrop_path":"\/9X3j9awAcNykWnpU9hu4EweJLBE.jpg","genre_ids":[35],"original_title":"Balls Out","original_language":"en","title":"Balls Out","vote_average":4.2,"overview":"With marriage, graduation, and the real world looming on the horizon, fifth year senior Caleb Fuller reassembles the ol' team of misfits for one last epic run in Intramural football.","release_date":"2014-04-19"},{"poster_path":"\/jRXnNV3spMikPuoDG17u4TYHuLN.jpg","vote_count":5,"video":false,"media_type":"movie","id":127689,"adult":false,"genre_ids":[35],"original_title":"Searching for Sonny","original_language":"en","title":"Searching for Sonny","vote_average":4.1,"overview":"Reunited friends find themselves the chief suspects of a murder mystery that seems eerily similar to a play they performed in high school.","release_date":"2011-10-22"}],"popularity":0.6,"profile_path":null,"gender":0,"media_type":"person","adult":false},{"original_name":"The Wonderful World of Disney","genre_ids":[16,10751],"media_type":"tv","name":"The Wonderful World of Disney","popularity":5.12,"origin_country":["US"],"vote_count":10,"first_air_date":"1997-09-28","backdrop_path":"\/a9q6ZJJAIyf6eyLd8aGNOFhWTQH.jpg","original_language":"en","id":23936,"vote_average":6.5,"overview":"Walt Disney Productions (later The Walt Disney Company) has produced an anthology television series under several different titles since 1954. The original version of the series premiered on ABC in 1954. The show was broadcast weekly on one of the Big Three television networks until 1990, a 36-year span with only a two-year hiatus in 1984-85. The series was broadcast on Sunday for 25 of those years. From 1991 until 1997, the series aired infrequently. The program resumed a regular schedule in 1997 on the ABC fall schedule, coinciding with Disney's recent purchase of the network. From 1997 until 2008, the program aired regularly on ABC. Subsequently, ABC continued the series as an occasional special presentation.","poster_path":"\/uutBQztXWkL1Ng4JQNC1dWkd6wY.jpg"},{"poster_path":"\/AaX0pw76DYl66m8U2OIwmXJqqZz.jpg","popularity":1.764,"vote_count":1,"video":true,"media_type":"movie","id":298295,"adult":false,"backdrop_path":"\/hmE3HtIl9KF6lk6SUBVs116TCaF.jpg","original_language":"en","original_title":"Walt Disney Treasures: Disney Rarities","genre_ids":[16],"title":"Walt Disney Treasures: Disney Rarities","vote_average":9,"overview":"This set covers many miscellaneous cartoons to come out of the studio that do not feature the usual stable of Disney stars and do not even fit in Silly Symphonies or did not feature the Silly Symphonies title card. This set also includes a few select episodes from the Alice Comedies, which were made in the 1920s, long before Mickey Mouse ever came on the scene.","release_date":"2005-12-06"},{"vote_count":27,"popularity":5.35,"id":15485,"video":false,"media_type":"movie","vote_average":5.1,"title":"Disney Princess Enchanted Tales: Follow Your Dreams","release_date":"2007-09-03","original_language":"en","original_title":"Disney Princess Enchanted Tales: Follow Your Dreams","genre_ids":[16,10751],"backdrop_path":"\/7T6y6u1vUbZrCwQ9kFqH21CoAaB.jpg","adult":false,"overview":"Your little princess will want to follow her dreams as she tags along on an adventure with two of Disney's most popular princesses in this new animated fairy tale. Aurora, star of the beloved classic Sleeping Beauty, and Jasmine, from the Academy Award-winning film Aladdin, journey to faraway lands and make new discoveries about themselves.","poster_path":"\/beAvTAhMQpTRxmlgGgpfg9F2rc1.jpg"},{"vote_count":1,"popularity":1.135,"id":311015,"video":true,"media_type":"movie","vote_average":8,"title":"Disney Parks: Disney's Animal Kingdom","release_date":"2010-01-01","original_language":"en","original_title":"Disney Parks: Disney's Animal Kingdom","genre_ids":[99],"backdrop_path":null,"adult":false,"overview":"This documentary offers a look at the Walt Disney Co.'s revolutionary Animal Kingdom theme park in Orlando, Fla., which presented unique challenges to the project's designers in combining theme park rides and live animals in the same environment. The program features a fascinating backstage glimpse of the park, including its Dinosaur attraction, as well as the Tree of Life and spectacular Expedition Everest and Kilimanjaro Safari.","poster_path":"\/93OEKY5vnKqGFbOyHtUAdcEz8NV.jpg"},{"poster_path":"\/yOX8VfDFHJI1Ap1xtylJrwBciHJ.jpg","popularity":1.822,"vote_count":4,"video":true,"media_type":"movie","id":286370,"adult":false,"backdrop_path":"\/sdHuNWMNH7PW3KCAKDVcVfBMFFz.jpg","original_language":"en","original_title":"Disney Heroes Volume 1","genre_ids":[16,10751],"title":"Disney Heroes Volume 1","vote_average":7.5,"overview":"","release_date":"2005-06-15"},{"known_for_department":"Acting","id":1556682,"name":"Jay Disney","known_for":[{"poster_path":"\/4VppODEeoY4ek0R3gxCGPYNQ6t0.jpg","id":492257,"vote_count":4,"video":false,"media_type":"movie","adult":false,"backdrop_path":"\/4dGEXMIj2g4PtKU7Na49jOvAZ5s.jpg","genre_ids":[18],"original_title":"A Tale of Two Coreys","original_language":"en","title":"A Tale of Two Coreys","vote_average":6,"overview":"The story of teen heartthrobs Corey Feldman and Corey Haim, whose lives were forever changed by the glitz, glamour, and the darker side of show business.","release_date":"2018-01-06"},{"vote_count":2,"video":false,"media_type":"movie","id":415674,"adult":false,"genre_ids":[],"original_title":"Killing Animals","original_language":"en","title":"Killing Animals","vote_average":10,"overview":"Killing Animals is a portrait of a lost generation of California youths. The lives of troubled teenage misfits intertwine as they experiment with vices of all kinds, and succumb to self-destructive, often heartless nihilism.","release_date":"2015-06-01"},{"release_date":"2016-10-22","vote_count":1,"video":false,"media_type":"movie","id":422363,"vote_average":7,"title":"Courier X","original_language":"en","original_title":"Courier X","genre_ids":[18],"adult":false,"overview":"A surreptitious smuggler gets solicited by the CIA to help cover-up the Nicaraguan blackmail attempt on the CIA, after the release of \"Dark Alliance\", by Pulitzer Prize winning journalist, Gary Webb.  - Karl Wachsmann","poster_path":"\/4rNXfXpsrVrn0hJwQlgQymJjUg1.jpg"}],"popularity":0.6,"profile_path":"\/y4x0wyV9wkMpJiFfB5hSyZOBbrc.jpg","gender":0,"media_type":"person","adult":false},{"poster_path":"\/23LbkmaZkijqpVugHDkAMJIQKJY.jpg","popularity":1.735,"vote_count":6,"video":false,"media_type":"movie","id":177868,"adult":false,"backdrop_path":"\/1vLjmvQrwR5FwDC2sLAhRnu1vGL.jpg","original_language":"en","original_title":"A Disney Christmas Gift","genre_ids":[],"title":"A Disney Christmas Gift","vote_average":7.1,"overview":"Christmas-themed compilation of animated shorts featuring Mickey Mouse and Donald Duck combined with excerpts from Disney feature films as well as the 1933 classic short \"The Night Before Christmas\".","release_date":"1983-12-20"}]}