{"page":1,"total_results":655,"total_pages":33,"results":[{"original_name":"I Am Not an Animal","genre_ids":[16,35],"name":"I Am Not an Animal","popularity":14.009,"origin_country":["GB"],"vote_count":366,"first_air_date":"2004-05-10","backdrop_path":"\/ok1YiumqOCYzUmuTktnupOQOvV5.jpg","original_language":"en","id":100,"vote_average":9.5,"overview":"I Am Not An Animal is an animated comedy series about the only six talking animals in the world, whose cosseted existence in a vivisection unit is turned upside down when they are liberated by animal rights activists.","poster_path":"\/nMhv6jG5dtLdW7rgguYWvpbk0YN.jpg"},{"original_name":"Chernobyl","genre_ids":[18],"name":"Chernobyl","popularity":44.609,"origin_country":["US"],"vote_count":643,"first_air_date":"2019-05-06","backdrop_path":"\/cDpR6URVghK5LC7G7NgPkCP8x6E.jpg","original_language":"en","id":87108,"vote_average":8.7,"overview":"The true story of one of the worst man-made catastrophes in history: the catastrophic nuclear accident at Chernobyl. A tale of the brave men and women who sacrificed to save Europe from unimaginable disaster.","poster_path":"\/hlLXt2tOPT6RRnjiUmoxyG1LTFi.jpg"},{"original_name":"Rick and Morty","genre_ids":[16,35,10759,10765],"name":"Rick and Morty","popularity":679.022,"origin_country":["US"],"vote_count":1481,"first_air_date":"2013-12-02","backdrop_path":"\/mzzHr6g1yvZ05Mc7hNj3tUdy2bM.jpg","original_language":"en","id":60625,"vote_average":8.6,"overview":"Rick is a mentally-unbalanced but scientifically-gifted old man who has recently reconnected with his family. He spends most of his time involving his young grandson Morty in dangerous, outlandish adventures throughout space and alternate universes. Compounded with Morty's already unstable family life, these events cause Morty much distress at home and school.","poster_path":"\/qJdfO3ahgAMf2rcmhoqngjBBZW1.jpg"},{"original_name":"Breaking Bad","genre_ids":[18],"name":"Breaking Bad","popularity":116.766,"origin_country":["US"],"vote_count":3625,"first_air_date":"2008-01-20","backdrop_path":"\/hbgPoI0GBrXJfGjYNV2fMQU0xou.jpg","original_language":"en","id":1396,"vote_average":8.4,"overview":"When Walter White, a New Mexico chemistry teacher, is diagnosed with Stage III cancer and given a prognosis of only two years left to live. He becomes filled with a sense of fearlessness and an unrelenting desire to secure his family's financial future at any cost as he enters the dangerous world of drugs and crime.","poster_path":"\/1yeVJox3rjo2jBKrrihIMj7uoS9.jpg"},{"original_name":"Sherlock","genre_ids":[80,18,9648],"name":"Sherlock","popularity":40.36,"origin_country":["GB"],"vote_count":1923,"first_air_date":"2010-07-25","backdrop_path":"\/bvS50jBZXtglmLu72EAt5KgJBrL.jpg","original_language":"en","id":19885,"vote_average":8.3,"overview":"A modern update finds the famous sleuth and his doctor partner solving crime in 21st century London.","poster_path":"\/f9zGxLHGyQB10cMDZNY5ZcGKhZi.jpg"},{"original_name":"Planet Earth II","genre_ids":[99],"name":"Planet Earth II","popularity":16.877,"origin_country":["GB"],"vote_count":358,"first_air_date":"2016-11-06","backdrop_path":"\/xIt4DDYipMPNu2HDBrhUS4ndSYb.jpg","original_language":"en","id":68595,"vote_average":8.3,"overview":"David Attenborough presents a documentary series exploring how animals meet the challenges of surviving in the most iconic habitats on earth.","poster_path":"\/uy5QoTu8fc6fGXMCTMbpQJFUEB0.jpg"},{"original_name":"Avatar: The Last Airbender","genre_ids":[28,12,16,14],"name":"Avatar: The Last Airbender","popularity":15.92,"origin_country":["US"],"vote_count":574,"first_air_date":"2005-02-21","backdrop_path":"\/732azfQ0xUAJNQ48pPfVtCCLVlZ.jpg","original_language":"en","id":246,"vote_average":8.3,"overview":"In a war-torn world of elemental magic, a young boy reawakens to undertake a dangerous mystic quest to fulfill his destiny as the Avatar, and bring peace to the world.","poster_path":"\/sB8V0pQtJZ17v8FLXMOcYz6045c.jpg"},{"original_name":"DEATH NOTE","genre_ids":[16,9648],"name":"Death Note","popularity":40.168,"origin_country":["JP"],"vote_count":619,"first_air_date":"2006-10-04","backdrop_path":"\/A2j5g79EcWn1oTNCW9PSo7NZRfv.jpg","original_language":"ja","id":13916,"vote_average":8.3,"overview":"Light Yagami is an ace student with great prospects—and he’s bored out of his mind. But all that changes when he finds the Death Note, a notebook dropped by a rogue Shinigami death god. Any human whose name is written in the notebook dies, and Light has vowed to use the power of the Death Note to rid the world of evil. But will Light succeed in his noble goal, or will the Death Note turn him into the very thing he fights against?","poster_path":"\/g8hHbsRmHYoWYizhWCk87vpkrmy.jpg"},{"original_name":"Stranger Things","genre_ids":[18,9648,10765],"name":"Stranger Things","popularity":63.664,"origin_country":["US"],"vote_count":2754,"first_air_date":"2016-07-15","backdrop_path":"\/56v2KjBlU4XaOv9rVYEQypROD7P.jpg","original_language":"en","id":66732,"vote_average":8.3,"overview":"When a young boy vanishes, a small town uncovers a mystery involving secret experiments, terrifying supernatural forces, and one strange little girl.","poster_path":"\/x2LSRK2Cm7MZhjluni1msVJ3wDF.jpg"},{"original_name":"Peaky Blinders","genre_ids":[80,18],"name":"Peaky Blinders","popularity":55.623,"origin_country":["GB"],"vote_count":605,"first_air_date":"2013-09-12","backdrop_path":"\/rWUC2x8q7Cu5Wrx2PKH0sYYmVx7.jpg","original_language":"en","id":60574,"vote_average":8.3,"overview":"A gangster family epic set in 1919 Birmingham, England and centered on a gang who sew razor blades in the peaks of their caps, and their fierce boss Tommy Shelby, who means to move up in the world.","poster_path":"\/jeWoeUQyHdxGFNZCrzbOUP78FiZ.jpg"},{"original_name":"Young Justice","genre_ids":[16,10759],"name":"Young Justice","popularity":18.986,"origin_country":["US"],"vote_count":128,"first_air_date":"2010-11-26","backdrop_path":"\/3Yjbb4g4yJoXY12zYfV8bUm8C92.jpg","original_language":"en","id":33217,"vote_average":8.3,"overview":"Teenage superheroes strive to prove themselves as members of the Justice League.","poster_path":"\/oL31ADgSgVdgoJPRAdWISQBIO0w.jpg"},{"original_name":"The Wire","genre_ids":[80,18],"name":"The Wire","popularity":35.289,"origin_country":["US"],"vote_count":881,"first_air_date":"2002-06-02","backdrop_path":"\/aaNzIG6CweG9riEBKBZ39QZA61w.jpg","original_language":"en","id":1438,"vote_average":8.3,"overview":"Told from the points of view of both the Baltimore homicide and narcotics detectives and their targets, the series captures a universe in which the national war on drugs has become a permanent, self-sustaining bureaucracy, and distinctions between good and evil are routinely obliterated.","poster_path":"\/dg7NuKDjmS6OzuNy33qt8kSkPA1.jpg"},{"original_name":"Gravity Falls","genre_ids":[16,35,9648,10765],"name":"Gravity Falls","popularity":34.007,"origin_country":["US"],"vote_count":314,"first_air_date":"2012-06-15","backdrop_path":"\/sJjrJWsOCUUeVMexxANNC6s3dWV.jpg","original_language":"en","id":40075,"vote_average":8.3,"overview":"Twin brother and sister Dipper and Mabel Pines are in for an unexpected adventure when they spend the summer helping their great uncle Stan run a tourist trap in the mysterious town of Gravity Falls, Oregon.","poster_path":"\/oGsgxjeZ9rd20eCJsGSMGgWvl4P.jpg"},{"original_name":"新世紀エヴァンゲリオン","genre_ids":[16,18,10765],"name":"Neon Genesis Evangelion","popularity":21.526,"origin_country":["JP"],"vote_count":239,"first_air_date":"1995-10-04","backdrop_path":"\/myTetJyeVb6EIvSwaJ9c5jdRxcV.jpg","original_language":"ja","id":890,"vote_average":8.3,"overview":"At the turn of the century, the Angels returned to Earth, seeking to wipe out humanity in an apocalyptic fury. Devastated, mankind's last remnants moved underground to wait for the day when the Angels would come back to finish the job. Fifteen years later, that day has come... but this time, humanity is ready to fight back with terrifying bio-mechanical weapons known as the Evangelions. Watch as Shinji, Rei, Asuka and the rest of the mysterious shadow agency Nerv battle to save earth from total annihilation.","poster_path":"\/4n063I6pRLaN3vAbd5y6Xx9b3PW.jpg"},{"original_name":"The Twilight Zone","genre_ids":[18,9648,10765],"name":"The Twilight Zone","popularity":12.147,"origin_country":["US"],"vote_count":298,"first_air_date":"1959-10-02","backdrop_path":"\/lKdKgLoLPmnHoUXunrcSAuBhAJx.jpg","original_language":"en","id":6357,"vote_average":8.3,"overview":"A series of unrelated stories containing drama, psychological thriller, fantasy, science fiction, suspense, and\/or horror, often concluding with a macabre or unexpected twist.","poster_path":"\/7uY4pCOxbEdv4M8jTE4uMPVoSIW.jpg"},{"original_name":"ハンターｘハンター","genre_ids":[16,35,18,10759],"name":"Hunter x Hunter","popularity":83.967,"origin_country":["JP"],"vote_count":164,"first_air_date":"2011-10-02","backdrop_path":"\/ye4oayd3csx8psElvvQPdO2fgdD.jpg","original_language":"ja","id":46298,"vote_average":8.2,"overview":"Twelve-year-old Gon Freecss one day discovers that the father he had always been told was dead was alive and well. His Father, Ging, is a Hunter—a member of society's elite with a license to go anywhere or do almost anything. Gon, determined to follow in his father's footsteps, decides to take the Hunter Examination and eventually find his father to prove himself as a Hunter in his own right. But on the way, he learns that there is more to becoming a Hunter than previously thought, and the challenges that he must face are considered the toughest in the world.","poster_path":"\/yWBcBIO9OrF3E85C5Arols6QNnG.jpg"},{"original_name":"Fargo","genre_ids":[80,18],"name":"Fargo","popularity":30.412,"origin_country":["US"],"vote_count":1109,"first_air_date":"2014-04-15","backdrop_path":"\/qq1S5EjaaUrQAcMsn6raNFXpzHk.jpg","original_language":"en","id":60622,"vote_average":8.2,"overview":"A close-knit anthology series dealing with stories involving malice, violence and murder based in and around Minnesota.","poster_path":"\/e890UetS6XH7kqltlZ8VU6qDaHU.jpg"},{"original_name":"鋼の錬金術師 FULLMETAL ALCHEMIST","genre_ids":[16,18,9648,10759],"name":"Fullmetal Alchemist: Brotherhood","popularity":38.326,"origin_country":["JP"],"vote_count":380,"first_air_date":"2009-04-05","backdrop_path":"\/sPJbWoqud7YSsMHRXYxYc4b07ps.jpg","original_language":"ja","id":31911,"vote_average":8.2,"overview":"Edward and Alphonse Elric's reckless disregard for alchemy's fun­damental laws ripped half of Ed's limbs from his body and left Al's soul clinging to a cold suit of armor. To restore what was lost, the brothers scour a war-torn land for the Philosopher's Sto­ne, a fabled relic which grants the ability to perform alchemy in impossible ways.\n\nThe Elrics are not alone in their search; the corrupt State Military is also eager to harness the artifact's power. So too are the strange Homunculi and their shadowy creator. The mythical gem lures exotic alchemists from distant kingdoms, scarring some deeply enough to inspire murder. As the Elrics find their course altered by these enemies and allies, their purpose remains unchanged – and their bond unbreakable.","poster_path":"\/5ZFUEOULaVml7pQuXxhpR2SmVUw.jpg"},{"original_name":"Chappelle's Show","id":713,"name":"Chappelle's Show","popularity":9.276,"vote_count":155,"vote_average":8.2,"first_air_date":"2003-01-22","poster_path":"\/o5FI6Xu30m2HDim07f6bHAos9ZC.jpg","genre_ids":[35],"original_language":"en","backdrop_path":"\/2r5cvK4uqU7LiEBNsVzu5FlQPLn.jpg","overview":"Chappelle's Show is an American sketch comedy television series created by comedians Dave Chappelle and Neal Brennan, with Chappelle hosting the show as well as starring in various sketches. Chappelle, Brennan and Michele Armour were the show's executive producers. The series premiered on January 22, 2003, on the American cable television network Comedy Central. The show ran for two complete seasons and a third, truncated season.\n\nAfter numerous delays, production of the third season of the show was abruptly ended when Chappelle left the show. Three episodes were compiled from the completed work and these episodes aired from July 9 to July 23, 2006. Re-runs frequently air on Comedy Central and around the world on MTV in Germany, Comedy Central in Brazil, The Comedy Network in Canada, The Comedy Channel and 7mate in Australia and FX in the United Kingdom.\n\nChappelle's Show was also shown on WGN America and was syndicated to various television stations across the U.S. including MyNetworkTV. TV Guide ranked it #31 on their list of \"TV's Top 100 Shows\".","origin_country":["US"]},{"original_name":"Futurama","genre_ids":[16,35],"name":"Futurama","popularity":44.567,"origin_country":["US"],"vote_count":945,"first_air_date":"1999-03-28","backdrop_path":"\/r91cDHXENXwjG0eoGka0A4TtGjf.jpg","original_language":"en","id":615,"vote_average":8.2,"overview":"The adventures of a late-20th-century New York City pizza delivery boy, Philip J. Fry, who, after being unwittingly cryogenically frozen for one thousand years, finds employment at Planet Express, an interplanetary delivery company in the retro-futuristic 31st century.","poster_path":"\/iN0LOeE2JnJpIy4jF7imUjO6jwn.jpg"}]}