{"page":1,"total_results":10000,"total_pages":500,"results":[{"original_name":"Rick and Morty","genre_ids":[16,35,10759,10765],"name":"Rick and Morty","popularity":679.022,"origin_country":["US"],"vote_count":1481,"first_air_date":"2013-12-02","backdrop_path":"\/mzzHr6g1yvZ05Mc7hNj3tUdy2bM.jpg","original_language":"en","id":60625,"vote_average":8.6,"overview":"Rick is a mentally-unbalanced but scientifically-gifted old man who has recently reconnected with his family. He spends most of his time involving his young grandson Morty in dangerous, outlandish adventures throughout space and alternate universes. Compounded with Morty's already unstable family life, these events cause Morty much distress at home and school.","poster_path":"\/qJdfO3ahgAMf2rcmhoqngjBBZW1.jpg"},{"original_name":"The Mandalorian","genre_ids":[10759,10765],"name":"The Mandalorian","popularity":369.872,"origin_country":["US"],"vote_count":50,"first_air_date":"2019-11-12","backdrop_path":"\/o7qi2v4uWQ8bZ1tW3KI0Ztn2epk.jpg","original_language":"en","id":82856,"vote_average":8,"overview":"Set after the fall of the Empire and before the emergence of the First Order, we follow the travails of a lone gunfighter in the outer reaches of the galaxy far from the authority of the New Republic.","poster_path":"\/BbNvKCuEF4SRzFXR16aK6ISFtR.jpg"},{"original_name":"His Dark Materials","genre_ids":[18,10765],"name":"His Dark Materials","popularity":272.991,"origin_country":["GB"],"vote_count":57,"first_air_date":"2019-11-03","backdrop_path":"\/9yKCJTOh9m3Lol2RY3kw99QPH6x.jpg","original_language":"en","id":68507,"vote_average":7.8,"overview":"Lyra is an orphan who lives in a parallel universe in which science, theology and magic are entwined. Lyra's search for a kidnapped friend uncovers a sinister plot involving stolen children, and turns into a quest to understand a mysterious phenomenon called Dust. She is later joined on her journey by Will, a boy who possesses a knife that can cut windows between worlds. As Lyra learns the truth about her parents and her prophesied destiny, the two young people are caught up in a war against celestial powers that ranges across many worlds.","poster_path":"\/xOjRNnQw5hqR1EULJ2iHkGwJVA4.jpg"},{"original_name":"Arrow","genre_ids":[80,18,9648,10759],"name":"Arrow","popularity":245.694,"origin_country":["US"],"vote_count":2814,"first_air_date":"2012-10-10","backdrop_path":"\/dXTyVDTIgeByvUOUEiHjbi8xX9A.jpg","original_language":"en","id":1412,"vote_average":5.8,"overview":"Spoiled billionaire playboy Oliver Queen is missing and presumed dead when his yacht is lost at sea. He returns five years later a changed man, determined to clean up the city as a hooded vigilante armed with a bow.","poster_path":"\/gKG5QGz5Ngf8fgWpBsWtlg5L2SF.jpg"},{"original_name":"Fear the Walking Dead","genre_ids":[18,27],"name":"Fear the Walking Dead","popularity":282.846,"origin_country":["US"],"vote_count":1088,"first_air_date":"2015-08-23","backdrop_path":"\/7r4FieFH6Eh6S55hi8c9LOiFENg.jpg","original_language":"en","id":62286,"vote_average":6.3,"overview":"What did the world look like as it was transforming into the horrifying apocalypse depicted in \"The Walking Dead\"? This spin-off set in Los Angeles, following new characters as they face the beginning of the end of the world, will answer that question.","poster_path":"\/lZMb3R3e5vqukPbeDMeyYGf2ZNG.jpg"},{"original_name":"4 Blocks","genre_ids":[18],"name":"4 Blocks","popularity":148.341,"origin_country":["DE"],"vote_count":37,"first_air_date":"2017-05-08","backdrop_path":"\/jEdce7g6VZHMoJ7DANX8NFQkVAW.jpg","original_language":"de","id":71641,"vote_average":5.5,"overview":"Based in Neukölln, Berlin Toni manages the daily business of dealing with the Arabic gangs and ends up wanting to leave his old life behind for his family, but as expected, its never that simple.","poster_path":"\/jVObyxtNxuPbG5czuKvm7pW56EV.jpg"},{"original_name":"Supernatural","genre_ids":[18,9648,10765],"name":"Supernatural","popularity":172.853,"origin_country":["US"],"vote_count":2045,"first_air_date":"2005-09-13","backdrop_path":"\/o9OKe3M06QMLOzTl3l6GStYtnE9.jpg","original_language":"en","id":1622,"vote_average":7.4,"overview":"When they were boys, Sam and Dean Winchester lost their mother to a mysterious and demonic supernatural force. Subsequently, their father raised them to be soldiers. He taught them about the paranormal evil that lives in the dark corners and on the back roads of America ... and he taught them how to kill it. Now, the Winchester brothers crisscross the country in their '67 Chevy Impala, battling every kind of supernatural threat they encounter along the way. ","poster_path":"\/KoYWXbnYuS3b0GyQPkbuexlVK9.jpg"},{"original_name":"The Flash","genre_ids":[18,10765],"name":"The Flash","popularity":173.052,"origin_country":["US"],"vote_count":2996,"first_air_date":"2014-10-07","backdrop_path":"\/6ZdQTBy20HzWudZthAV7NkZWfIb.jpg","original_language":"en","id":60735,"vote_average":6.7,"overview":"After a particle accelerator causes a freak storm, CSI Investigator Barry Allen is struck by lightning and falls into a coma. Months later he awakens with the power of super speed, granting him the ability to move through Central City like an unseen guardian angel. Though initially excited by his newfound powers, Barry is shocked to discover he is not the only \"meta-human\" who was created in the wake of the accelerator explosion -- and not everyone is using their new powers for good. Barry partners with S.T.A.R. Labs and dedicates his life to protect the innocent. For now, only a few close friends and associates know that Barry is literally the fastest man alive, but it won't be long before the world learns what Barry Allen has become...The Flash.","poster_path":"\/wHa6KOJAoNTFLFtp7wguUJKSnju.jpg"},{"original_name":"The Simpsons","genre_ids":[16,35],"name":"The Simpsons","popularity":189.152,"origin_country":["US"],"vote_count":2241,"first_air_date":"1989-12-17","backdrop_path":"\/f5uNbUC76oowt5mt5J9QlqrIYQ6.jpg","original_language":"en","id":456,"vote_average":7.2,"overview":"Set in Springfield, the average American town, the show focuses on the antics and everyday adventures of the Simpson family; Homer, Marge, Bart, Lisa and Maggie, as well as a virtual cast of thousands. Since the beginning, the series has been a pop culture icon, attracting hundreds of celebrities to guest star. The show has also made name for itself in its fearless satirical take on politics, media and American life in general.","poster_path":"\/yTZQkSsxUFJZJe67IenRM0AEklc.jpg"},{"original_name":"Grey's Anatomy","genre_ids":[18],"name":"Grey's Anatomy","popularity":152.884,"origin_country":["US"],"vote_count":1110,"first_air_date":"2005-03-27","backdrop_path":"\/edmk8xjGBsYVIf4QtLY9WMaMcXZ.jpg","original_language":"en","id":1416,"vote_average":6.4,"overview":"Follows the personal and professional lives of a group of doctors at Seattle’s Grey Sloan Memorial Hospital.","poster_path":"\/jnsvc7gCKocXnrTXF6p03cICTWb.jpg"},{"original_name":"Family Guy","genre_ids":[16,35],"name":"Family Guy","popularity":140.796,"origin_country":["US"],"vote_count":1719,"first_air_date":"1999-01-31","backdrop_path":"\/pH38r4TWTqq7Mcs6XAlwgzNUeJe.jpg","original_language":"en","id":1434,"vote_average":6.5,"overview":"Sick, twisted, politically incorrect and Freakin' Sweet animated series featuring the adventures of the dysfunctional Griffin family. Bumbling Peter and long-suffering Lois have three kids. Stewie (a brilliant but sadistic baby bent on killing his mother and taking over the world), Meg (the oldest, and is the most unpopular girl in town) and Chris (the middle kid, he's not very bright but has a passion for movies). The final member of the family is Brian - a talking dog and much more than a pet, he keeps Stewie in check whilst sipping Martinis and sorting through his own life issues.","poster_path":"\/gBGUL1UTUNmdRQT8gA1LUV4yg39.jpg"},{"original_name":"Law & Order: Special Victims Unit","genre_ids":[80,18],"name":"Law & Order: Special Victims Unit","popularity":117.895,"origin_country":["US"],"vote_count":729,"first_air_date":"1999-09-20","backdrop_path":"\/cD9PxbrdWYgL7MUpD9eOYuiSe2P.jpg","original_language":"en","id":2734,"vote_average":6.5,"overview":"In the criminal justice system, sexually-based offenses are considered especially heinous. In New York City, the dedicated detectives who investigate these vicious felonies are members of an elite squad known as the Special Victims Unit. These are their stories.","poster_path":"\/6t6r1VGQTTQecN4V0sZeqsmdU9g.jpg"},{"original_name":"See","genre_ids":[18,10765],"name":"See","popularity":97.234,"origin_country":["US"],"vote_count":71,"first_air_date":"2019-11-01","backdrop_path":"\/8TOkxONO3TEeJRuZWb0hG7SboyV.jpg","original_language":"en","id":80752,"vote_average":7.5,"overview":"A virus has decimated humankind. Those who survived emerged blind. Centuries later when twins are born with the mythic ability to see, their father must protect his tribe against a threatened queen.","poster_path":"\/g3JsScc7mQCfc3e5e5rXwu7xVVP.jpg"},{"original_name":"Riverdale","genre_ids":[18,9648],"name":"Riverdale","popularity":107.692,"origin_country":["US"],"vote_count":728,"first_air_date":"2017-01-26","backdrop_path":"\/2IUpoKSP64r6rp2vBo0Fdk8a1UU.jpg","original_language":"en","id":69050,"vote_average":7.2,"overview":"Set in the present, the series offers a bold, subversive take on Archie, Betty, Veronica and their friends, exploring the surreality of small-town life, the darkness and weirdness bubbling beneath Riverdale’s wholesome facade.","poster_path":"\/4X7o1ssOEvp4BFLim1AZmPNcYbU.jpg"},{"original_name":"Batwoman","genre_ids":[80,9648,10759,10765],"name":"Batwoman","popularity":109.564,"origin_country":["US"],"vote_count":147,"first_air_date":"2019-10-06","backdrop_path":"\/spc5mNkW2daK1ob7Z7jqNkSlKS2.jpg","original_language":"en","id":89247,"vote_average":6.1,"overview":"Kate Kane, armed with a passion for social justice and a flair for speaking her mind, soars onto the streets of Gotham as Batwoman, an out lesbian and highly trained street fighter primed to snuff out the failing city's criminal resurgence. But don't call her a hero yet. In a city desperate for a savior, Kate must overcome her own demons before embracing the call to be Gotham's symbol of hope","poster_path":"\/jnaimWkIVSD9IInmZPyLYarSvvc.jpg"},{"original_name":"South Park","genre_ids":[16,35],"name":"South Park","popularity":116.91,"origin_country":["US"],"vote_count":1190,"first_air_date":"1997-08-13","backdrop_path":"\/mSDKNVvDfitFE6Fb6fSSl5DQmgS.jpg","original_language":"en","id":2190,"vote_average":7.8,"overview":"Follows the misadventures of four irreverent grade-schoolers in the quiet, dysfunctional town of South Park, Colorado.","poster_path":"\/v9zc0cZpy5aPSfAy6Tgb6I1zWgV.jpg"},{"original_name":"Legacies","genre_ids":[18,9648,10765],"name":"Legacies","popularity":96.717,"origin_country":["US"],"vote_count":221,"first_air_date":"2018-10-25","backdrop_path":"\/wblSifvXAlqAYqEUoXmhpzeau7b.jpg","original_language":"en","id":79460,"vote_average":7.8,"overview":"In a place where young witches, vampires, and werewolves are nurtured to be their best selves in spite of their worst impulses, Klaus Mikaelson’s daughter, 17-year-old Hope Mikaelson, Alaric Saltzman’s twins, Lizzie and Josie Saltzman, among others, come of age into heroes and villains at The Salvatore School for the Young and Gifted.","poster_path":"\/rb64COqdpRRfWOc6gWTfC7WxzXP.jpg"},{"original_name":"The Blacklist","genre_ids":[80,18,9648],"name":"The Blacklist","popularity":112.932,"origin_country":["US"],"vote_count":1094,"first_air_date":"2013-09-23","backdrop_path":"\/fHwiAqIKragaCbNJo9Qs4lrccIN.jpg","original_language":"en","id":46952,"vote_average":6.9,"overview":"Raymond \"Red\" Reddington, one of the FBI's most wanted fugitives, surrenders in person at FBI Headquarters in Washington, D.C. He claims that he and the FBI have the same interests: bringing down dangerous criminals and terrorists. In the last two decades, he's made a list of criminals and terrorists that matter the most but the FBI cannot find because it does not know they exist. Reddington calls this \"The Blacklist\". Reddington will co-operate, but insists that he will speak only to Elizabeth Keen, a rookie FBI profiler.","poster_path":"\/bgbQCW4fE9b6wSOSC6Fb4FfVzsW.jpg"},{"original_name":"NCIS: Los Angeles","genre_ids":[80,18,9648,10759],"name":"NCIS: Los Angeles","popularity":96.988,"origin_country":["US"],"vote_count":409,"first_air_date":"2009-09-22","backdrop_path":"\/j4ltPl0cHMd16UO80vbxFx1Td1w.jpg","original_language":"en","id":17610,"vote_average":6.8,"overview":"The exploits of the Los Angeles–based Office of Special Projects (OSP), an elite division of the Naval Criminal Investigative Service that specializes in undercover assignments.","poster_path":"\/p0doUtM8RhXcAwHs6VmMZMQKpai.jpg"},{"original_name":"Titans","genre_ids":[18,10759,10765],"name":"Titans","popularity":80.608,"origin_country":["US"],"vote_count":342,"first_air_date":"2018-10-12","backdrop_path":"\/7DE9KC9GyY2TUJMnSPgYJG3rafw.jpg","original_language":"en","id":75450,"vote_average":7.6,"overview":"A team of young superheroes led by Nightwing (formerly Batman's first Robin) form to combat evil and other perils.","poster_path":"\/eeHI5iBSCOxj4HGSOmFM6azBmwb.jpg"}]}