{"results":[{"vote_count":1345,"id":351286,"video":false,"vote_average":6.6,"title":"Jurassic World: Fallen Kingdom","popularity":287.343825,"poster_path":"\/c9XxwwhPHdaImA2f1WEfEsbhaFB.jpg","original_language":"en","original_title":"Jurassic World: Fallen Kingdom","genre_ids":[28,12,878],"backdrop_path":"\/gBmrsugfWpiXRh13Vo3j0WW55qD.jpg","adult":false,"overview":"A volcanic eruption threatens the remaining dinosaurs on the island of Isla Nublar, where the creatures have freely roamed for several years after the demise of an animal theme park known as Jurassic World. Claire Dearing, the former park manager, has now founded the Dinosaur Protection Group, an organization dedicated to protecting the dinosaurs. To help with her cause, Claire has recruited Owen Grady, a former dinosaur trainer who worked at the park, to prevent the extinction of the dinosaurs once again.","release_date":"2018-06-06"},{"vote_count":468,"id":260513,"video":false,"vote_average":7.7,"title":"Incredibles 2","popularity":176.078602,"poster_path":"\/x1txcDXkcM65gl7w20PwYSxAYah.jpg","original_language":"en","original_title":"Incredibles 2","genre_ids":[28,12,16,10751],"backdrop_path":"\/mabuNsGJgRuCTuGqjFkWe1xdu19.jpg","adult":false,"overview":"Elastigirl springs into action to save the day, while Mr. Incredible faces his greatest challenge yet – taking care of the problems of his three children.","release_date":"2018-06-14"},{"vote_count":26,"id":363088,"video":false,"vote_average":6.7,"title":"Ant-Man and the Wasp","popularity":70.209395,"poster_path":"\/rv1AWImgx386ULjcf62VYaW8zSt.jpg","original_language":"en","original_title":"Ant-Man and the Wasp","genre_ids":[28,12,14,35,878],"backdrop_path":"\/91zKb5etuYT1GIbnMX4vnGiJz9n.jpg","adult":false,"overview":"As Scott Lang balances being both a superhero and a father, Hope van Dyne and Dr. Hank Pym present an urgent new mission that finds the Ant-Man fighting alongside the Wasp to uncover secrets from their past.","release_date":"2018-07-04"},{"vote_count":61,"id":400535,"video":false,"vote_average":6.6,"title":"Sicario: Day of the Soldado","popularity":69.534,"poster_path":"\/OdD7A0LgLXPjqzmfcEl9sTYVPo.jpg","original_language":"en","original_title":"Sicario: Day of the Soldado","genre_ids":[28,80,18,53],"backdrop_path":"\/urMfgRUk0Kmf5p0KEJopAlqcyXm.jpg","adult":false,"overview":"FBI agent Matt Graver teams up with operative Alejandro Gillick to prevent Mexican drug cartels from smuggling terrorists across the U.S. border.","release_date":"2018-06-27"},{"vote_count":72,"id":440471,"video":false,"vote_average":5,"title":"Escape Plan 2: Hades","popularity":54.389017,"poster_path":"\/Aqhl55vpzxNFqVfc2DpedUsR39L.jpg","original_language":"en","original_title":"Escape Plan 2: Hades","genre_ids":[80,28,53],"backdrop_path":"\/xIAaN3AQqaJiN5RJ0WsmBady8Hq.jpg","adult":false,"overview":"Ray Breslin manages an elite team of security specialists trained in the art of breaking people out of the world's most impenetrable prisons. When his most trusted operative, Shu Ren, is kidnapped and disappears inside the most elaborate prison ever built, Ray must track him down with the help of some of his former friends.","release_date":"2018-06-05"},{"vote_count":4,"id":442249,"video":false,"vote_average":4.5,"title":"The First Purge","popularity":52.931559,"poster_path":"\/6TeucsXc3kDjiGuHklD0M1JvJsT.jpg","original_language":"en","original_title":"The First Purge","genre_ids":[28,27,878,53],"backdrop_path":"\/qofo47n8rUP0KvEUmwFllz1eXgv.jpg","adult":false,"overview":"To push the crime rate below one percent for the rest of the year, the New Founding Fathers of America (NFFA) test a sociological theory that vents aggression for one night in one isolated community. But when the violence of the oppressors meets the rage of the marginalized, the contagion will explode from the trial-city borders and spread across the nation.","release_date":"2018-07-04"},{"vote_count":418,"id":402900,"video":false,"vote_average":6.8,"title":"Ocean's 8","popularity":47.213083,"poster_path":"\/MvYpKlpFukTivnlBhizGbkAe3v.jpg","original_language":"en","original_title":"Ocean's 8","genre_ids":[80,35,28,53],"backdrop_path":"\/zBIfBeStaDdDdhBrSx8InhgFUVa.jpg","adult":false,"overview":"Debbie Ocean, a criminal mastermind, gathers a crew of seven other female thieves to pull off the heist of the century at New York's annual Met Gala.","release_date":"2018-06-07"},{"vote_count":3,"id":353081,"video":false,"vote_average":0,"title":"Mission: Impossible - Fallout","popularity":44.753197,"poster_path":"\/80PWnSTkygi3QWWmJ3hrAwqvLnO.jpg","original_language":"en","original_title":"Mission: Impossible - Fallout","genre_ids":[12,28,53],"backdrop_path":"\/5qxePyMYDisLe8rJiBYX8HKEyv2.jpg","adult":false,"overview":"The sixth installment in the \"Mission: Impossible\". When an IMF mission ends badly, the world is faced with dire consequences. As Ethan Hunt takes it upon himself to fulfil his original briefing, the CIA begin to question his loyalty and his motives. The IMF team find themselves in a race against time, hunted by assassins while trying to prevent a global catastrophe.","release_date":"2018-07-26"},{"vote_count":266,"id":493922,"video":false,"vote_average":7,"title":"Hereditary","popularity":38.836726,"poster_path":"\/4GFPuL14eXi66V96xBWY73Y9PfR.jpg","original_language":"en","original_title":"Hereditary","genre_ids":[27,18,9648,53],"backdrop_path":"\/yVWiOMpzf7gullGvug83r7gMdha.jpg","adult":false,"overview":"After their reclusive grandmother passes away, the Graham family begins to unravel cryptic and increasingly terrifying secrets about their ancestry. The more they discover, the more they find themselves trying to outrun the sinister fate they seem to have inherited.","release_date":"2018-06-04"},{"vote_count":3,"id":493006,"video":false,"vote_average":4.3,"title":"Detective Conan: Zero the Enforcer","popularity":38.419131,"poster_path":"\/mMWV5MXn2pkDnnI4vWpy3dRWdNC.jpg","original_language":"ja","original_title":"名探偵コナン ゼロの執行人","genre_ids":[16,80,9648,28,18],"backdrop_path":"\/kEqeponciiz6TyuKWtnKSzXzbGa.jpg","adult":false,"overview":"There is a sudden explosion at Tokyo Summit's giant Edge of Ocean facility. The shadow of Tōru Amuro, who works for the National Police Agency Security Bureau as Zero, appears at the site. In addition, the \"triple-face\" character is known as Rei Furuya as a detective and Kogorō Mōri's apprentice, and he is also known as Bourbon as a Black Organization member. Kogorō is arrested as a suspect in the case of the explosion. Conan conducts an investigation to prove Kogorō's innocence, but Amuro gets in his way.","release_date":"2018-04-13"},{"vote_count":111,"id":460668,"video":false,"vote_average":6.3,"title":"I Feel Pretty","popularity":34.802482,"poster_path":"\/rmP8b6vxbpK1sPinnUqXHKq0VkT.jpg","original_language":"en","original_title":"I Feel Pretty","genre_ids":[35],"backdrop_path":"\/eMO51xOIJYtlMZLpDUlrnq0mz8k.jpg","adult":false,"overview":"A head injury causes a woman to develop an extraordinary amount of confidence and believe she's drop dead gorgeous.","release_date":"2018-04-19"},{"vote_count":63,"id":385332,"video":false,"vote_average":5.7,"title":"Terminal","popularity":34.761165,"poster_path":"\/xi7pA3lL6Wb78p6Y6PgWoHDMjrM.jpg","original_language":"en","original_title":"Terminal","genre_ids":[53,18,80],"backdrop_path":"\/bwvxvrHH3nTbcwpEcJhA72kkI94.jpg","adult":false,"overview":"In the dark heart of a sprawling, anonymous city, two assassins carry out a sinister mission, a teacher battles a fatal illness, and an enigmatic janitor and a curious waitress lead dangerous double lives.  Murderous consequences unravel in the dead of night, as their lives intertwine at the hands of a mysterious criminal mastermind who is hell-bent on revenge.","release_date":"2018-05-11"},{"vote_count":55,"id":455980,"video":false,"vote_average":7.1,"title":"Tag","popularity":30.207279,"poster_path":"\/eXXpuW2xaq5Aen9N5prFlARVIvr.jpg","original_language":"en","original_title":"Tag","genre_ids":[35],"backdrop_path":"\/yRXzrwLfB5tDTIA3lSU9S3N9RUK.jpg","adult":false,"overview":"For one month every year, five highly competitive friends hit the ground running in a no-holds-barred game of tag they’ve been playing since the first grade. This year, the game coincides with the wedding of their only undefeated player, which should finally make him an easy target. But he knows they’re coming...and he’s ready.","release_date":"2018-06-14"},{"vote_count":545,"id":399174,"video":false,"vote_average":7.8,"title":"Isle of Dogs","popularity":29.674343,"poster_path":"\/m2q7oCHyH38y5bUiPWs6BI3T8Di.jpg","original_language":"en","original_title":"Isle of Dogs","genre_ids":[12,35,16],"backdrop_path":"\/5YtXsLG9ncjjFyGZjoeV31CGf01.jpg","adult":false,"overview":"In the future, an outbreak of canine flu leads the mayor of a Japanese city to banish all dogs to an island that's a garbage dump. The outcasts must soon embark on an epic journey when a 12-year-old boy arrives on the island to find his beloved pet.","release_date":"2018-03-23"},{"vote_count":668,"id":429351,"video":false,"vote_average":4.9,"title":"12 Strong","popularity":24.855126,"poster_path":"\/j18021qCeRi3yUBtqd2UFj1c0RQ.jpg","original_language":"en","original_title":"12 Strong","genre_ids":[10752,18,36],"backdrop_path":"\/wacEk5YSNE41QeKseilyytksXmv.jpg","adult":false,"overview":"A team of CIA agents and special forces head into Afghanistan in the aftermath of the September 11th attacks in an attempt to dismantle the Taliban.","release_date":"2018-01-16"},{"vote_count":138,"id":425336,"video":false,"vote_average":6.2,"title":"Loving Pablo","popularity":23.787535,"poster_path":"\/u4zDvt1RLzcubG2TGianeJHwwPA.jpg","original_language":"es","original_title":"Loving Pablo","genre_ids":[80,18],"backdrop_path":"\/pcIXV6Od8KeDsLWKu7Wzthaur4V.jpg","adult":false,"overview":"The film chronicles the rise and fall of the world's most feared drug lord Pablo Escobar and his volatile love affair with Colombia's most famous journalist Virginia Vallejo throughout a reign of terror that tore a country apart.","release_date":"2017-10-12"},{"vote_count":5,"id":474335,"video":false,"vote_average":7,"title":"Uncle Drew","popularity":23.69039,"poster_path":"\/9lCNsfc1OEDNceGJTjfE0kBknEW.jpg","original_language":"en","original_title":"Uncle Drew","genre_ids":[35],"backdrop_path":"\/604nkQ0s7ND7nrQorF0v9rSDpdf.jpg","adult":false,"overview":"Uncle Drew recruits a squad of older basketball players to return to the court to compete in a tournament.","release_date":"2018-06-28"},{"vote_count":61,"id":399248,"video":false,"vote_average":6.5,"title":"Beirut","popularity":22.836146,"poster_path":"\/s2qIeFsI9TskZr1LkSwljQDh5nl.jpg","original_language":"en","original_title":"Beirut","genre_ids":[28,53,18],"backdrop_path":"\/2nLOJ8gtattGzYzwlYM8PrcgknH.jpg","adult":false,"overview":"A former U. S. diplomat returns to service in order to save a former colleague in Beirut.","release_date":"2018-04-11"},{"vote_count":143,"id":467660,"video":false,"vote_average":6.1,"title":"Unsane","popularity":22.046514,"poster_path":"\/1M1U5K4Vf1Cbtrjl9EkGNWpqahf.jpg","original_language":"en","original_title":"Unsane","genre_ids":[27,53],"backdrop_path":"\/xj6qPnD9DIVvlhTsteXumeF2OsV.jpg","adult":false,"overview":"A woman is involuntarily committed to a mental institution amid uncertainty as to whether her greatest fear is real or delusional.","release_date":"2018-03-22"},{"vote_count":5,"id":396373,"video":false,"vote_average":7,"title":"Woman Walks Ahead","popularity":19.779142,"poster_path":"\/qI5NcQHR0nsykPqlG2qnfFyMgW6.jpg","original_language":"en","original_title":"Woman Walks Ahead","genre_ids":[18,36,37],"backdrop_path":"\/krBzcb8PAhdkrcqgGS1XrxhnQlT.jpg","adult":false,"overview":"A headstrong New York painter embarks on a dangerous journey to meet Sitting Bull, but must face off with an Army officer intent war with the Native Americans.","release_date":"2018-06-29"}],"page":1,"total_results":240,"dates":{"maximum":"2018-07-30","minimum":"2018-07-02"},"total_pages":12}