{"results":[{"vote_count":1292,"id":351286,"video":false,"vote_average":6.7,"title":"Jurassic World: Fallen Kingdom","popularity":292.272164,"poster_path":"\/c9XxwwhPHdaImA2f1WEfEsbhaFB.jpg","original_language":"en","original_title":"Jurassic World: Fallen Kingdom","genre_ids":[28,12,878],"backdrop_path":"\/gBmrsugfWpiXRh13Vo3j0WW55qD.jpg","adult":false,"overview":"A volcanic eruption threatens the remaining dinosaurs on the island of Isla Nublar, where the creatures have freely roamed for several years after the demise of an animal theme park known as Jurassic World. Claire Dearing, the former park manager, has now founded the Dinosaur Protection Group, an organization dedicated to protecting the dinosaurs. To help with her cause, Claire has recruited Owen Grady, a former dinosaur trainer who worked at the park, to prevent the extinction of the dinosaurs once again.","release_date":"2018-06-06"},{"vote_count":466,"id":260513,"video":false,"vote_average":7.7,"title":"Incredibles 2","popularity":183.664012,"poster_path":"\/x1txcDXkcM65gl7w20PwYSxAYah.jpg","original_language":"en","original_title":"Incredibles 2","genre_ids":[28,12,16,10751],"backdrop_path":"\/mabuNsGJgRuCTuGqjFkWe1xdu19.jpg","adult":false,"overview":"Elastigirl springs into action to save the day, while Mr. Incredible faces his greatest challenge yet – taking care of the problems of his three children.","release_date":"2018-06-14"},{"vote_count":1651,"id":447332,"video":false,"vote_average":7.2,"title":"A Quiet Place","popularity":108.269635,"poster_path":"\/nAU74GmpUk7t5iklEp3bufwDq4n.jpg","original_language":"en","original_title":"A Quiet Place","genre_ids":[18,27,53,878],"backdrop_path":"\/roYyPiQDQKmIKUEhO912693tSja.jpg","adult":false,"overview":"A family is forced to live in silence while hiding from creatures that hunt by sound.","release_date":"2018-04-04"},{"vote_count":2700,"id":383498,"video":false,"vote_average":7.6,"title":"Deadpool 2","popularity":90.701385,"poster_path":"\/to0spRl1CMDvyUbOnbb4fTk3VAd.jpg","original_language":"en","original_title":"Deadpool 2","genre_ids":[28,35,878],"backdrop_path":"\/3P52oz9HPQWxcwHOwxtyrVV1LKi.jpg","adult":false,"overview":"Wisecracking mercenary Deadpool battles the evil and powerful Cable and other bad guys to save a boy's life.","release_date":"2018-05-15"},{"vote_count":963,"id":427641,"video":false,"vote_average":5.9,"title":"Rampage","popularity":86.14838,"poster_path":"\/3gIO6mCd4Q4PF1tuwcyI3sjFrtI.jpg","original_language":"en","original_title":"Rampage","genre_ids":[28,12,878,14],"backdrop_path":"\/wrqUiMXttHE4UBFMhLHlN601MZh.jpg","adult":false,"overview":"Primatologist Davis Okoye shares an unshakable bond with George, the extraordinarily intelligent, silverback gorilla who has been in his care since birth. But a rogue genetic experiment gone awry mutates this gentle ape into a raging creature of enormous size. To make matters worse, it’s soon discovered there are other similarly altered animals. As these newly created alpha predators tear across North America, destroying everything in their path, Okoye teams with a discredited genetic engineer to secure an antidote, fighting his way through an ever-changing battlefield, not only to halt a global catastrophe but to save the fearsome creature that was once his friend.","release_date":"2018-04-12"},{"vote_count":1113,"id":348350,"video":false,"vote_average":6.8,"title":"Solo: A Star Wars Story","popularity":70.227249,"poster_path":"\/4oD6VEccFkorEBTEDXtpLAaz0Rl.jpg","original_language":"en","original_title":"Solo: A Star Wars Story","genre_ids":[28,12,878],"backdrop_path":"\/7LZ0K4FsALrt7OeNIGOVLNuKQRU.jpg","adult":false,"overview":"Through a series of daring escapades deep within a dark and dangerous criminal underworld, Han Solo meets his mighty future copilot Chewbacca and encounters the notorious gambler Lando Calrissian.","release_date":"2018-05-23"},{"vote_count":228,"id":437557,"video":false,"vote_average":6.3,"title":"Blockers","popularity":67.034395,"poster_path":"\/uvlUQXg0AlpGzKukO11K7QtW3Yu.jpg","original_language":"en","original_title":"Blockers","genre_ids":[35],"backdrop_path":"\/bUcHY7CrYWieikW8fFkL3Dxnt4H.jpg","adult":false,"overview":"When three parents discover their daughters’ pact to lose their virginity at prom, they launch a covert one-night operation to stop the teens from sealing the deal.","release_date":"2018-03-30"},{"vote_count":40,"id":400535,"video":false,"vote_average":6.5,"title":"Sicario: Day of the Soldado","popularity":62.266664,"poster_path":"\/OdD7A0LgLXPjqzmfcEl9sTYVPo.jpg","original_language":"en","original_title":"Sicario: Day of the Soldado","genre_ids":[28,80,18,53],"backdrop_path":"\/uDRb7zVqtqMtXS8bnqYJ17SlhK8.jpg","adult":false,"overview":"FBI agent Matt Graver teams up with operative Alejandro Gillick to prevent Mexican drug cartels from smuggling terrorists across the U.S. border.","release_date":"2018-06-27"},{"vote_count":383,"id":460019,"video":false,"vote_average":6,"title":"Truth or Dare","popularity":52.911379,"poster_path":"\/vLLLHnHi3RICK0GHAffwx5UExQZ.jpg","original_language":"en","original_title":"Truth or Dare","genre_ids":[53,27],"backdrop_path":"\/eQ5xu2pQ5Kergubto5PbbUzey28.jpg","adult":false,"overview":"A harmless game of \"Truth or Dare\" among friends turns deadly when someone—or something—begins to punish those who tell a lie—or refuse the dare.","release_date":"2018-04-12"},{"vote_count":20,"id":363088,"video":false,"vote_average":7.6,"title":"Ant-Man and the Wasp","popularity":50.435282,"poster_path":"\/rv1AWImgx386ULjcf62VYaW8zSt.jpg","original_language":"en","original_title":"Ant-Man and the Wasp","genre_ids":[28,12,14,35,878],"backdrop_path":"\/91zKb5etuYT1GIbnMX4vnGiJz9n.jpg","adult":false,"overview":"As Scott Lang balances being both a superhero and a father, Hope van Dyne and Dr. Hank Pym present an urgent new mission that finds the Ant-Man fighting alongside the Wasp to uncover secrets from their past.","release_date":"2018-07-04"},{"vote_count":68,"id":440471,"video":false,"vote_average":4.9,"title":"Escape Plan 2: Hades","popularity":50.260116,"poster_path":"\/A6tb8JNrie2qT8JC2tGqshayuck.jpg","original_language":"en","original_title":"Escape Plan 2: Hades","genre_ids":[80,28,53],"backdrop_path":"\/xIAaN3AQqaJiN5RJ0WsmBady8Hq.jpg","adult":false,"overview":"Ray Breslin manages an elite team of security specialists trained in the art of breaking people out of the world's most impenetrable prisons. When his most trusted operative, Shu Ren, is kidnapped and disappears inside the most elaborate prison ever built, Ray must track him down with the help of some of his former friends.","release_date":"2018-06-05"},{"vote_count":381,"id":402900,"video":false,"vote_average":6.8,"title":"Ocean's 8","popularity":48.567221,"poster_path":"\/MvYpKlpFukTivnlBhizGbkAe3v.jpg","original_language":"en","original_title":"Ocean's 8","genre_ids":[80,35,28,53],"backdrop_path":"\/zBIfBeStaDdDdhBrSx8InhgFUVa.jpg","adult":false,"overview":"Debbie Ocean, a criminal mastermind, gathers a crew of seven other female thieves to pull off the heist of the century at New York's annual Met Gala.","release_date":"2018-06-07"},{"vote_count":63,"id":385332,"video":false,"vote_average":5.7,"title":"Terminal","popularity":42.527765,"poster_path":"\/xi7pA3lL6Wb78p6Y6PgWoHDMjrM.jpg","original_language":"en","original_title":"Terminal","genre_ids":[53,18,80],"backdrop_path":"\/bwvxvrHH3nTbcwpEcJhA72kkI94.jpg","adult":false,"overview":"In the dark heart of a sprawling, anonymous city, two assassins carry out a sinister mission, a teacher battles a fatal illness, and an enigmatic janitor and a curious waitress lead dangerous double lives. Murderous consequences unravel in the dead of night, as their lives intertwine at the hands of a mysterious criminal mastermind who is hell-bent on revenge.","release_date":"2018-05-11"},{"vote_count":3,"id":493006,"video":false,"vote_average":4.3,"title":"Detective Conan: Zero the Enforcer","popularity":40.747542,"poster_path":"\/mMWV5MXn2pkDnnI4vWpy3dRWdNC.jpg","original_language":"ja","original_title":"名探偵コナン ゼロの執行人","genre_ids":[16,80,9648,28,18],"backdrop_path":"\/kEqeponciiz6TyuKWtnKSzXzbGa.jpg","adult":false,"overview":"There is a sudden explosion at Tokyo Summit's giant Edge of Ocean facility. The shadow of Tōru Amuro, who works for the National Police Agency Security Bureau as Zero, appears at the site. In addition, the \"triple-face\" character is known as Rei Furuya as a detective and Kogorō Mōri's apprentice, and he is also known as Bourbon as a Black Organization member. Kogorō is arrested as a suspect in the case of the explosion. Conan conducts an investigation to prove Kogorō's innocence, but Amuro gets in his way.","release_date":"2018-04-13"},{"vote_count":956,"id":449176,"video":false,"vote_average":8.3,"title":"Love, Simon","popularity":40.410393,"poster_path":"\/5YUYg5q7QfC4IoNwNUtiwdiYKPr.jpg","original_language":"en","original_title":"Love, Simon","genre_ids":[35,18,10749],"backdrop_path":"\/rqMEeajyzSF4PpJtdCB816Iz8Vr.jpg","adult":false,"overview":"Everyone deserves a great love story. But for seventeen-year old Simon Spier it's a little more complicated: he's yet to tell his family or friends he's gay and he doesn't know the identity of the anonymous classmate he's fallen for online.","release_date":"2018-03-16"},{"vote_count":2,"id":442249,"video":false,"vote_average":1.5,"title":"The First Purge","popularity":38.093971,"poster_path":"\/hgaNOnlZR69ELcVXoczfqdiMgXw.jpg","original_language":"en","original_title":"The First Purge","genre_ids":[28,27,878,53],"backdrop_path":"\/qofo47n8rUP0KvEUmwFllz1eXgv.jpg","adult":false,"overview":"To push the crime rate below one percent for the rest of the year, the New Founding Fathers of America (NFFA) test a sociological theory that vents aggression for one night in one isolated community. But when the violence of the oppressors meets the rage of the marginalized, the contagion will explode from the trial-city borders and spread across the nation.","release_date":"2018-07-04"},{"vote_count":258,"id":493922,"video":false,"vote_average":7,"title":"Hereditary","popularity":37.524843,"poster_path":"\/4GFPuL14eXi66V96xBWY73Y9PfR.jpg","original_language":"en","original_title":"Hereditary","genre_ids":[27,18,9648,53],"backdrop_path":"\/yVWiOMpzf7gullGvug83r7gMdha.jpg","adult":false,"overview":"After their reclusive grandmother passes away, the Graham family begins to unravel cryptic and increasingly terrifying secrets about their ancestry. The more they discover, the more they find themselves trying to outrun the sinister fate they seem to have inherited.","release_date":"2018-06-04"},{"vote_count":1573,"id":401981,"video":false,"vote_average":6.4,"title":"Red Sparrow","popularity":36.311562,"poster_path":"\/vLCogyfQGxVLDC1gqUdNAIkc29L.jpg","original_language":"en","original_title":"Red Sparrow","genre_ids":[9648,53],"backdrop_path":"\/sGzuQYSTwJvLBc2PnuSVLHhuFeh.jpg","adult":false,"overview":"Prima ballerina, Dominika Egorova faces a bleak and uncertain future after she suffers an injury that ends her career. She soon turns to Sparrow School, a secret intelligence service that trains exceptional young people to use their minds and bodies as weapons. Dominika emerges as the most dangerous Sparrow after completing the sadistic training process. As she comes to terms with her new abilities, she meets a CIA agent who tries to convince her that he is the only person she can trust.","release_date":"2018-02-28"},{"vote_count":33,"id":490214,"video":false,"vote_average":3.8,"title":"Iceman 2","popularity":35.359436,"poster_path":"\/enZENHd2gwVAw4sJKJxtJl1vJ09.jpg","original_language":"cn","original_title":"时空行者","genre_ids":[28,35,36],"backdrop_path":"\/6SOLRw0mLepY83uonpbhWIe8mWx.jpg","adult":false,"overview":"The imperial guard and his three traitorous childhood friends ordered to hunt him down get accidentally buried and kept frozen in time. 400 years later pass and they are defrosted continuing the battle they left behind","release_date":"2018-05-18"},{"vote_count":154,"id":430040,"video":false,"vote_average":5.3,"title":"The Hurricane Heist","popularity":31.441579,"poster_path":"\/wh1f7peigW0qUXXwynwVAt7axZd.jpg","original_language":"en","original_title":"The Hurricane Heist","genre_ids":[28,80,53],"backdrop_path":"\/3ZQRLuXNTbewOHDfxF51fy74gh4.jpg","adult":false,"overview":"Thieves attempt a massive heist against the U.S. Treasury as a Category 5 hurricane approaches one of its Mint facilities.","release_date":"2018-02-01"}],"page":1,"total_results":1040,"dates":{"maximum":"2018-07-06","minimum":"2018-05-16"},"total_pages":52}